<?xml version="1.0" standalone="no"?>
<!DOCTYPE svg PUBLIC "-//W3C//DTD SVG 20010904//EN"
 "http://www.w3.org/TR/2001/REC-SVG-20010904/DTD/svg10.dtd">
<svg version="1.0" xmlns="http://www.w3.org/2000/svg"
 width="460.000000pt" height="460.000000pt" viewBox="0 0 460.000000 460.000000"
 preserveAspectRatio="xMidYMid meet">
<metadata>
Created by potrace 1.14, written by Peter Selinger 2001-2017
</metadata>
<g transform="translate(0.000000,460.000000) scale(0.100000,-0.100000)"
fill="#000000" stroke="none">
<path d="M0 2300 l0 -2300 2300 0 2300 0 0 2300 0 2300 -2300 0 -2300 0 0
-2300z m4585 1972 c-3 -3 -11 0 -18 7 -9 10 -8 11 6 5 10 -3 15 -9 12 -12z
m-2015 -948 c0 -14 3 -14 15 -4 9 7 15 8 15 2 0 -16 -31 -23 -46 -11 -18 15
-18 29 1 29 8 0 15 -7 15 -16z m131 -11 c13 -16 12 -17 -3 -4 -17 13 -22 21
-14 21 2 0 10 -8 17 -17z m174 7 c3 -5 1 -10 -4 -10 -6 0 -11 5 -11 10 0 6 2
10 4 10 3 0 8 -4 11 -10z m295 -20 c0 -5 -4 -10 -10 -10 -5 0 -10 5 -10 10 0
6 5 10 10 10 6 0 10 -4 10 -10z m-395 -40 c3 -5 -1 -10 -9 -10 -9 0 -16 5 -16
10 0 6 4 10 9 10 6 0 13 -4 16 -10z m502 4 c-3 -3 -12 -4 -19 -1 -8 3 -5 6 6
6 11 1 17 -2 13 -5z m-1742 -14 c3 -5 1 -10 -4 -10 -6 0 -11 5 -11 10 0 6 2
10 4 10 3 0 8 -4 11 -10z m-35 -15 c0 -8 -4 -15 -10 -15 -5 0 -10 7 -10 15 0
8 5 15 10 15 6 0 10 -7 10 -15z m1170 -5 c0 -11 -4 -20 -10 -20 -5 0 -10 2
-10 4 0 2 -3 11 -6 20 -4 11 -1 16 10 16 9 0 16 -8 16 -20z m-400 -10 c0 -5
-4 -10 -10 -10 -5 0 -10 5 -10 10 0 6 5 10 10 10 6 0 10 -4 10 -10z m-605 -10
c3 -5 1 -10 -4 -10 -6 0 -11 5 -11 10 0 6 2 10 4 10 3 0 8 -4 11 -10z m1860
-8 c-3 -3 -11 0 -18 7 -9 10 -8 11 6 5 10 -3 15 -9 12 -12z m-891 -21 c3 -5
-1 -12 -10 -15 -20 -8 -29 -1 -19 13 8 13 22 14 29 2z m283 3 c-3 -3 -12 -4
-19 -1 -8 3 -5 6 6 6 11 1 17 -2 13 -5z m171 -11 c-2 -9 -8 -18 -15 -20 -7 -3
-9 3 -6 16 6 25 26 28 21 4z m-500 -7 c-2 -1 -11 -8 -20 -15 -16 -12 -18 -11
-18 7 0 15 5 19 20 15 12 -3 19 -6 18 -7z m1737 4 c3 -5 1 -10 -4 -10 -6 0
-11 5 -11 10 0 6 2 10 4 10 3 0 8 -4 11 -10z m-1825 -26 c10 -10 11 -17 3 -25
-8 -8 -15 -6 -25 10 -7 11 -18 21 -25 21 -7 0 -13 5 -13 11 0 13 40 2 60 -17z
m-510 0 c0 -2 -7 -4 -15 -4 -8 0 -15 4 -15 10 0 5 7 7 15 4 8 -4 15 -8 15 -10z
m-1045 -4 c3 -5 1 -10 -4 -10 -6 0 -11 5 -11 10 0 6 2 10 4 10 3 0 8 -4 11
-10z m1035 -20 c0 -5 -4 -10 -10 -10 -5 0 -10 5 -10 10 0 6 5 10 10 10 6 0 10
-4 10 -10z m200 0 c0 -5 -4 -10 -10 -10 -5 0 -10 5 -10 10 0 6 5 10 10 10 6 0
10 -4 10 -10z m-540 -21 c0 -6 -4 -7 -10 -4 -5 3 -10 11 -10 16 0 6 5 7 10 4
6 -3 10 -11 10 -16z m594 -4 c-4 -8 -8 -15 -10 -15 -2 0 -4 7 -4 15 0 8 4 15
10 15 5 0 7 -7 4 -15z m177 2 c-1 -12 -15 -9 -19 4 -3 6 1 10 8 8 6 -3 11 -8
11 -12z m-1572 -20 c7 -13 11 -37 9 -53 -3 -27 -6 -29 -41 -28 -43 1 -77 27
-77 59 0 31 19 45 60 45 28 0 40 -5 49 -23z m1871 -51 c0 -4 -4 -6 -8 -6 -14
0 -53 60 -46 71 5 9 54 -50 54 -65z m-402 46 c2 -7 -3 -12 -12 -12 -9 0 -16 7
-16 16 0 17 22 14 28 -4z m-328 -2 c0 -5 -4 -10 -10 -10 -5 0 -10 5 -10 10 0
6 5 10 10 10 6 0 10 -4 10 -10z m126 -7 c17 -23 17 -33 0 -33 -8 0 -17 7 -20
16 -14 36 -2 46 20 17z m704 7 c0 -5 -4 -10 -10 -10 -5 0 -10 5 -10 10 0 6 5
10 10 10 6 0 10 -4 10 -10z m660 0 c0 -5 -2 -10 -4 -10 -3 0 -8 5 -11 10 -3 6
-1 10 4 10 6 0 11 -4 11 -10z m140 -2 c0 -7 -4 -19 -9 -27 -11 -17 -25 3 -17
24 7 18 26 20 26 3z m-2511 -29 c13 -17 21 -33 18 -35 -12 -12 -59 11 -68 33
-12 32 -12 33 9 33 10 0 28 -14 41 -31z m1131 -4 c7 -9 10 -18 7 -22 -8 -7
-37 15 -37 28 0 14 16 11 30 -6z m1570 -6 c0 -6 -4 -7 -10 -4 -5 3 -10 11 -10
16 0 6 5 7 10 4 6 -3 10 -11 10 -16z m295 11 c3 -5 1 -10 -4 -10 -6 0 -11 5
-11 10 0 6 2 10 4 10 3 0 8 -4 11 -10z m-2145 -38 c0 -13 -12 -22 -22 -16 -10
6 -1 24 13 24 5 0 9 -4 9 -8z m-30 -68 c0 -8 -7 -14 -15 -14 -8 0 -15 9 -15
20 0 13 5 18 15 14 8 -4 15 -12 15 -20z m2241 -1 c13 -16 12 -17 -3 -4 -17 13
-22 21 -14 21 2 0 10 -8 17 -17z m-2001 -19 c0 -8 -7 -14 -15 -14 -17 0 -18 2
-9 24 7 18 24 12 24 -10z m436 1 c19 -14 19 -14 -2 -15 -12 0 -27 7 -34 15
-17 20 9 21 36 0z m49 -5 c3 -5 -1 -10 -10 -10 -9 0 -13 5 -10 10 3 6 8 10 10
10 2 0 7 -4 10 -10z m565 -38 c0 -4 -9 -8 -20 -9 -11 -1 -20 2 -20 5 0 4 9 8
20 9 11 1 20 -2 20 -5z m-1200 -37 c0 -8 -7 -15 -15 -15 -8 0 -15 7 -15 15 0
8 7 15 15 15 8 0 15 -7 15 -15z m-1823 -61 c5 -15 -20 -24 -37 -14 -7 4 -9 13
-5 19 8 14 37 11 42 -5z m113 -141 c0 -15 -2 -16 -10 -3 -8 12 -10 12 -10 1 0
-8 -3 -12 -6 -8 -8 7 4 27 17 27 5 0 9 -8 9 -17z m350 3 c0 -3 -4 -8 -10 -11
-5 -3 -10 -1 -10 4 0 6 5 11 10 11 6 0 10 -2 10 -4z m644 -105 c-6 -6 -24 19
-24 34 1 6 7 1 15 -9 8 -11 12 -22 9 -25z m130 -58 c8 -19 2 -16 -25 13 -23
25 -23 26 -2 13 13 -7 25 -19 27 -26z m1454 -38 c-3 -3 -9 2 -12 12 -6 14 -5
15 5 6 7 -7 10 -15 7 -18z m42 -55 c13 -8 13 -10 -2 -10 -9 0 -20 5 -23 10 -8
13 5 13 25 0z m-953 -32 c-3 -8 -6 -5 -6 6 -1 11 2 17 5 13 3 -3 4 -12 1 -19z
m938 -57 c4 -15 3 -21 -3 -17 -5 3 -12 17 -15 32 -5 30 8 20 18 -15z m123 -29
c6 -18 -15 -14 -22 4 -4 10 -1 14 6 12 6 -2 14 -10 16 -16z m772 -4 c0 -13
-23 -5 -28 10 -2 7 2 10 12 6 9 -3 16 -11 16 -16z m-1485 2 c3 -5 2 -10 -4
-10 -5 0 -13 5 -16 10 -3 6 -2 10 4 10 5 0 13 -4 16 -10z m107 -4 c6 4 8 2 5
-4 -4 -5 -16 -8 -28 -5 -16 4 -17 8 -7 14 7 5 14 4 16 -1 2 -6 9 -7 14 -4z
m567 0 c19 -4 23 -17 11 -36 -9 -13 -13 -11 -30 10 -17 21 -21 23 -30 10 -8
-12 -10 -10 -10 9 0 20 4 22 23 17 12 -4 29 -8 36 -10z m873 -18 c-9 -9 -12
-7 -12 12 0 19 3 21 12 12 9 -9 9 -15 0 -24z m-1846 13 c-4 -5 0 -12 6 -14 8
-3 6 -6 -4 -6 -18 -1 -24 10 -11 22 9 10 15 8 9 -2z m1109 -1 c3 -5 1 -10 -4
-10 -6 0 -11 5 -11 10 0 6 2 10 4 10 3 0 8 -4 11 -10z m27 -12 c-7 -7 -12 -8
-12 -2 0 14 12 26 19 19 2 -3 -1 -11 -7 -17z m-582 -8 c0 -13 -26 -19 -41 -9
-11 7 -10 9 4 9 10 0 15 4 12 10 -3 6 1 7 9 4 9 -3 16 -10 16 -14z m531 -12
c43 -15 46 -15 58 4 12 19 13 19 32 -6 11 -14 26 -26 34 -26 7 0 18 -7 25 -15
15 -18 46 -20 56 -3 4 7 3 8 -4 4 -7 -4 -12 -3 -12 2 0 12 28 24 33 14 2 -4 3
-22 2 -39 -1 -18 3 -33 8 -33 5 0 7 7 3 15 -4 11 2 15 19 16 38 2 40 3 59 22
10 9 26 17 36 17 10 0 21 6 23 13 4 9 8 9 15 -2 7 -10 14 -11 31 -2 12 7 21 8
21 2 0 -16 34 -18 46 -2 10 13 16 13 40 2 l29 -13 -23 -9 c-20 -8 -23 -14 -17
-46 5 -35 4 -36 -9 -18 -8 11 -12 23 -10 27 7 11 -19 22 -58 24 -36 2 -38 1
-31 -25 l6 -26 -21 25 c-12 14 -21 20 -22 13 0 -6 -8 -10 -17 -8 -10 1 -26 -2
-35 -7 -16 -8 -16 -11 3 -48 20 -38 39 -52 39 -30 0 6 7 10 15 10 22 0 18 -16
-10 -38 -24 -19 -36 -40 -15 -27 6 3 10 1 10 -5 0 -6 4 -9 10 -5 5 3 7 12 4
19 -7 17 13 30 49 32 19 1 27 -3 28 -15 0 -10 2 -11 6 -3 2 6 9 10 14 7 5 -3
17 -1 28 5 13 7 22 7 26 0 3 -5 1 -10 -5 -10 -6 0 -9 -4 -6 -9 4 -5 1 -11 -6
-13 -7 -3 -5 -7 6 -11 11 -5 15 -3 10 5 -5 8 -1 9 12 4 10 -4 15 -4 12 0 -4 3
-1 13 7 21 8 8 15 24 15 35 0 17 3 18 15 8 8 -6 19 -9 25 -5 5 3 10 -1 10 -10
0 -10 -6 -15 -12 -13 -17 7 -53 -28 -39 -37 6 -3 11 -2 11 2 0 5 9 9 21 10 17
2 18 -1 9 -13 -7 -8 -19 -14 -27 -14 -7 0 -16 -6 -19 -13 -5 -15 -66 -19 -75
-5 -9 13 -59 -9 -59 -27 0 -8 -7 -15 -15 -15 -11 0 -10 7 6 35 22 37 13 48
-13 18 -25 -29 -26 -47 -4 -61 14 -9 16 -12 4 -8 -10 3 -18 1 -18 -4 0 -6 5
-10 10 -10 6 0 10 -4 10 -10 0 -5 -7 -10 -15 -10 -8 0 -15 7 -15 15 0 8 -8 15
-17 16 -15 0 -15 2 -3 7 8 4 16 21 18 37 2 27 1 28 -11 13 -8 -10 -22 -18 -32
-18 -10 0 -27 -8 -38 -17 -11 -10 -17 -13 -14 -6 9 14 -12 30 -22 16 -3 -5
-19 -9 -36 -9 -23 1 -31 6 -33 24 -2 13 -10 22 -22 22 -19 0 -29 22 -39 80 -6
34 -8 35 -46 33 -22 -1 -32 1 -22 4 9 2 17 8 17 13 0 10 -40 1 -57 -13 -9 -6
-13 -6 -13 1 0 6 -7 9 -15 6 -13 -6 -20 6 -16 29 0 4 -3 7 -9 7 -5 0 -10 -6
-11 -12 0 -7 -4 -3 -10 10 -5 13 -13 21 -19 17 -12 -7 -24 39 -16 61 3 8 10
12 16 9 5 -3 10 2 10 12 0 11 3 14 8 7 4 -6 28 -18 53 -26z m603 13 c3 -5 -1
-11 -9 -15 -9 -3 -15 0 -15 9 0 16 16 20 24 6z m-1664 -61 c0 -5 -5 -10 -11
-10 -5 0 -7 5 -4 10 3 6 8 10 11 10 2 0 4 -4 4 -10z m1624 -16 c3 -8 2 -12 -4
-9 -6 3 -10 10 -10 16 0 14 7 11 14 -7z m71 7 c3 -5 2 -12 -3 -15 -5 -3 -9 1
-9 9 0 17 3 19 12 6z m-1785 -31 c0 -5 -5 -10 -11 -10 -5 0 -7 5 -4 10 3 6 8
10 11 10 2 0 4 -4 4 -10z m1840 -1 c0 -4 -9 -7 -19 -6 -11 0 -18 4 -16 7 6 9
35 8 35 -1z m120 1 c-20 -13 -33 -13 -25 0 3 6 14 10 23 10 15 0 15 -2 2 -10z
m-2394 -13 c4 -4 -1 -14 -12 -22 -21 -16 -48 -20 -39 -6 3 5 1 12 -5 16 -19
12 -10 21 19 21 16 -1 33 -4 37 -9z m173 -23 c5 3 11 -1 15 -9 3 -9 0 -15 -9
-15 -21 0 -18 -12 10 -35 l23 -19 -20 -18 c-11 -10 -25 -15 -29 -12 -12 7 -11
-3 1 -26 13 -23 0 -32 -22 -16 -15 11 -15 16 -3 39 12 24 12 27 -1 27 -8 0
-12 -4 -9 -10 3 -5 2 -10 -4 -10 -6 0 -13 11 -17 24 -7 27 -23 37 -54 31 -12
-2 -20 1 -20 10 0 9 6 12 15 9 10 -4 15 0 16 12 0 16 2 15 9 -3 6 -16 18 -23
35 -23 16 0 24 4 19 11 -3 6 -15 9 -25 6 -12 -3 -19 0 -19 10 0 10 6 12 20 8
13 -4 22 -1 26 10 5 12 10 13 20 4 7 -6 17 -8 23 -5z m2692 -24 c5 0 9 -5 9
-11 0 -5 -4 -7 -10 -4 -6 3 -10 -4 -11 -17 0 -13 -3 -17 -6 -9 -4 10 -7 10
-13 1 -16 -26 -18 8 -2 40 12 25 18 30 20 17 2 -9 8 -17 13 -17z m-2841 -34
c0 -5 -7 -3 -15 4 -8 7 -15 20 -15 28 0 13 3 12 15 -4 8 -10 15 -23 15 -28z
m2895 2 c14 -43 15 -58 5 -58 -6 0 -10 5 -10 11 0 6 -6 9 -14 6 -17 -7 -41 18
-32 32 4 6 14 7 23 4 12 -5 15 -2 10 10 -3 9 -3 17 2 17 5 0 12 -10 16 -22z
m-645 0 c39 6 38 -3 -2 -22 -36 -19 -41 -20 -33 -6 3 6 -1 10 -9 10 -9 0 -16
5 -16 11 0 5 5 7 10 4 6 -3 10 0 11 7 0 7 2 8 5 2 2 -6 18 -8 34 -6z m65 2 c3
-5 1 -10 -4 -10 -6 0 -11 5 -11 10 0 6 2 10 4 10 3 0 8 -4 11 -10z m-1720 -38
c-3 -3 -11 0 -18 7 -9 10 -8 11 6 5 10 -3 15 -9 12 -12z m-345 -2 c0 -5 -4
-10 -10 -10 -5 0 -10 5 -10 10 0 6 5 10 10 10 6 0 10 -4 10 -10z m2540 0 c0
-5 -2 -10 -4 -10 -3 0 -8 5 -11 10 -3 6 -1 10 4 10 6 0 11 -4 11 -10z m-2515
-10 c3 -5 1 -10 -4 -10 -6 0 -11 5 -11 10 0 6 2 10 4 10 3 0 8 -4 11 -10z m55
-18 c0 -4 -5 -13 -11 -19 -8 -8 -3 -18 16 -36 28 -26 31 -62 5 -62 -8 0 -19
10 -25 23 -5 12 -16 22 -23 22 -7 0 -17 11 -22 24 -5 13 -15 26 -22 29 -13 5
15 11 39 8 6 -1 14 3 18 9 7 12 25 13 25 2z m146 -29 c-11 -11 -17 4 -9 23 7
18 8 18 11 1 2 -10 1 -21 -2 -24z m1989 18 c7 -12 -12 -24 -25 -16 -11 7 -4
25 10 25 5 0 11 -4 15 -9z m-2845 -22 c0 -14 -17 -10 -23 5 -4 10 -1 13 9 9 7
-3 14 -9 14 -14z m2938 1 c12 -11 26 -20 32 -20 5 0 10 -4 10 -10 0 -10 -46 4
-66 21 -7 5 -16 9 -20 8 -21 -3 -35 2 -29 11 10 17 50 11 73 -10z m-2696 -12
c-7 -7 -12 -21 -12 -31 0 -16 -3 -17 -15 -7 -20 17 -19 23 8 36 30 16 33 16
19 2z m628 -37 c0 -20 -6 -30 -20 -34 -11 -3 -20 -1 -20 4 0 5 8 9 18 10 12 0
10 3 -8 11 -14 6 -28 10 -32 10 -5 -1 -8 3 -8 9 0 6 7 9 15 5 8 -3 15 -2 15 2
0 4 9 8 20 9 16 1 20 -4 20 -26z m-1970 -7 c0 -2 -7 -4 -15 -4 -8 0 -15 4 -15
10 0 5 7 7 15 4 8 -4 15 -8 15 -10z m1438 -2 c2 -7 -2 -10 -12 -6 -9 3 -16 11
-16 16 0 13 23 5 28 -10z m-1450 -38 c2 -1 -1 -5 -7 -8 -5 -4 -15 4 -22 16
-12 22 -11 22 7 8 10 -8 20 -15 22 -16z m4095 1 c4 -8 3 -16 -1 -19 -4 -3 -9
4 -9 15 -2 23 3 25 10 4z m-2180 -2 c-7 -2 -19 -2 -25 0 -7 3 -2 5 12 5 14 0
19 -2 13 -5z m158 -26 c28 -36 43 -67 30 -67 -4 0 -11 3 -15 7 -3 4 -14 8 -23
9 -9 2 -28 6 -42 9 -22 6 -23 5 -10 -11 9 -11 9 -15 2 -10 -18 10 -16 -4 3
-25 14 -15 14 -17 -3 -15 -10 0 -17 -5 -15 -11 1 -7 -1 -12 -5 -12 -25 4 -33
-4 -33 -31 0 -23 4 -30 20 -30 17 0 42 -17 87 -63 45 -43 50 -55 47 -96 -3
-27 0 -40 6 -36 5 3 10 1 10 -4 0 -6 -6 -11 -12 -12 -10 0 -10 -2 0 -6 23 -9
12 -24 -15 -21 -16 2 -28 9 -28 17 0 8 -6 16 -13 19 -8 2 -10 -3 -6 -15 5 -13
2 -12 -10 5 -17 21 -43 22 -30 0 4 -6 -1 -8 -16 -3 -17 5 -21 4 -18 -6 3 -8 1
-22 -4 -31 -11 -22 -58 -24 -58 -3 0 20 -26 19 -34 -1 -3 -8 -10 -12 -16 -9
-6 4 -7 12 -3 18 4 8 1 7 -9 -1 -14 -11 -16 -10 -11 7 6 23 -7 27 -25 9 -10
-10 -15 -10 -21 1 -10 16 -31 6 -31 -15 0 -8 -12 -19 -26 -24 -37 -14 -47 -12
-39 8 12 28 14 62 4 62 -5 0 -9 -3 -10 -7 0 -5 -2 -18 -3 -30 -2 -13 -6 -26
-9 -29 -9 -9 -62 49 -63 69 -2 46 -6 55 -29 67 -14 8 -24 19 -21 25 2 7 -2 12
-10 12 -7 0 -11 -4 -9 -8 3 -3 -4 -9 -16 -12 -14 -4 -23 1 -28 16 -5 12 -6 27
-3 32 3 6 -2 4 -11 -4 -14 -11 -20 -11 -32 -1 -12 10 -15 9 -16 -6 0 -11 -3
-14 -5 -7 -3 7 -13 9 -22 6 -9 -3 -15 -4 -12 -2 3 2 18 15 34 29 16 14 26 19
22 13 -5 -9 -1 -13 11 -13 14 0 18 8 18 40 1 40 14 65 22 43 3 -7 9 -13 15
-13 6 0 8 7 5 15 -4 8 -2 17 3 20 6 4 10 2 10 -2 0 -5 12 -16 28 -26 23 -15
24 -17 5 -12 -19 5 -23 2 -23 -15 0 -12 -4 -18 -10 -15 -5 3 -10 1 -10 -4 0
-6 7 -11 15 -11 8 0 15 9 15 20 0 18 3 19 20 10 11 -6 20 -8 20 -5 0 4 7 0 15
-9 8 -8 15 -19 15 -25 0 -15 40 -7 50 10 7 11 12 11 22 1 17 -17 28 -15 28 7
0 11 5 23 12 27 8 5 10 -1 6 -22 -3 -16 -2 -38 2 -49 5 -11 9 -16 9 -11 2 18
51 -37 51 -56 0 -11 4 -17 10 -13 6 4 6 15 -1 32 -7 19 -6 28 2 33 6 4 12 22
14 39 1 17 4 33 7 36 9 10 -4 75 -15 68 -6 -4 -8 0 -4 10 3 9 0 18 -9 21 -8 3
-14 11 -13 18 0 10 2 10 6 1 2 -7 14 -13 24 -13 11 0 18 -4 15 -9 -7 -10 8
-22 48 -39 27 -12 28 -12 23 10 -6 21 -5 22 8 5 7 -11 16 -14 19 -8 4 5 2 12
-4 16 -5 3 -10 12 -10 18 0 7 5 4 11 -6 17 -29 39 -2 39 46 0 30 6 48 23 64
12 12 24 22 27 22 3 1 17 -14 31 -32z m-536 13 c-3 -5 -10 -10 -16 -10 -5 0
-9 5 -9 10 0 6 7 10 16 10 8 0 12 -4 9 -10z m443 -8 c6 -18 -15 -14 -22 4 -4
10 -1 14 6 12 6 -2 14 -10 16 -16z m-1718 -18 c28 -24 29 -27 13 -39 -10 -7
-22 -11 -27 -7 -5 3 -1 9 10 13 15 7 13 8 -10 6 -17 -1 -31 4 -34 12 -3 9 0
11 8 6 9 -6 9 -3 1 14 -16 29 1 27 39 -5z m-173 -4 c-1 -11 -5 -20 -9 -20 -10
0 -10 4 -2 24 8 22 13 20 11 -4z m1503 5 c11 -13 10 -14 -5 -9 -14 6 -16 3
-11 -13 4 -13 2 -20 -8 -20 -11 0 -12 6 -6 23 7 18 5 24 -8 27 -13 4 -12 5 4
6 12 0 27 -6 34 -14z m2710 -17 c0 -12 7 -30 17 -40 9 -10 12 -18 6 -18 -5 0
-18 9 -28 20 -26 29 -41 25 -39 -10 2 -37 -11 -48 -26 -20 -6 11 -7 20 -3 20
4 0 1 5 -7 10 -13 8 -12 10 4 10 14 0 17 5 12 25 -4 14 -2 25 4 25 5 0 10 -7
10 -15 0 -22 21 -18 27 5 7 25 23 16 23 -12z m-3072 5 c-2 -14 5 -19 30 -21
21 -2 38 -12 49 -28 9 -14 23 -24 32 -23 28 2 36 -1 22 -10 -18 -12 -61 7 -61
27 0 12 -3 12 -15 2 -11 -9 -15 -10 -15 -1 0 8 -9 10 -22 7 -13 -3 -17 -3 -10
0 8 4 6 11 -10 23 -12 10 -18 23 -14 29 11 17 17 15 14 -5z m2787 7 c3 -5 1
-10 -4 -10 -6 0 -11 5 -11 10 0 6 2 10 4 10 3 0 8 -4 11 -10z m-2895 -10 c0
-5 -5 -10 -11 -10 -5 0 -7 5 -4 10 3 6 8 10 11 10 2 0 4 -4 4 -10z m2923 -7
c-4 -11 -3 -14 5 -9 7 4 12 1 12 -8 0 -9 4 -16 9 -16 5 0 11 -7 15 -15 3 -8 0
-14 -7 -12 -7 1 -12 -5 -12 -13 0 -8 -4 -21 -8 -27 -5 -7 -5 -17 -2 -23 3 -5
2 -10 -3 -10 -12 0 -43 70 -36 82 4 6 -2 8 -17 4 -13 -3 -19 -3 -12 0 9 4 9
13 2 32 -9 26 -9 26 21 -6 26 -28 30 -30 30 -12 0 11 -5 20 -11 20 -8 0 -8 5
1 15 16 20 21 19 13 -2z m335 6 c-2 -6 -8 -10 -13 -10 -5 0 -11 4 -13 10 -2 6
4 11 13 11 9 0 15 -5 13 -11z m-4218 -16 c0 -10 -4 -14 -8 -8 -4 6 -11 13 -16
18 -5 4 -2 7 7 7 10 0 17 -8 17 -17z m270 8 c0 -5 9 -13 20 -16 16 -5 30 -45
16 -45 -2 0 -13 -3 -23 -7 -17 -6 -17 -6 0 15 18 20 18 21 -5 33 -13 7 -25 11
-28 10 -2 -1 -6 2 -8 8 -2 6 3 11 12 11 9 0 16 -4 16 -9z m1214 -14 c8 -12 7
-20 -3 -29 -11 -11 -12 -9 -9 7 2 11 -3 26 -12 33 -12 11 -12 13 -1 10 8 -3
19 -12 25 -21z m-1253 -7 c21 -17 21 -19 4 -13 -11 3 -23 11 -27 17 -5 7 -8 7
-8 -2 0 -7 -4 -10 -10 -7 -5 3 -10 10 -10 16 0 16 27 10 51 -11z m1211 -20
c-2 -16 -8 -27 -13 -24 -5 3 -9 0 -9 -7 0 -9 -4 -9 -15 1 -8 6 -19 9 -25 5
-16 -10 -12 12 6 30 13 13 19 13 32 3 10 -8 13 -9 9 -1 -4 6 -1 14 5 16 7 3
13 6 14 6 0 1 -1 -12 -4 -29z m2578 26 c0 -3 -4 -8 -10 -11 -5 -3 -10 -1 -10
4 0 6 5 11 10 11 6 0 10 -2 10 -4z m-3456 -21 c-4 -8 -8 -15 -10 -15 -2 0 -4
7 -4 15 0 8 4 15 10 15 5 0 7 -7 4 -15z m-634 -5 c0 -5 -2 -10 -4 -10 -3 0 -8
5 -11 10 -3 6 -1 10 4 10 6 0 11 -4 11 -10z m329 -20 c-33 -32 -31 -64 2 -34
18 16 18 15 6 -10 -14 -31 -19 -32 -34 -6 -11 16 -9 24 13 50 14 16 30 30 34
30 5 0 -5 -13 -21 -30z m996 20 c-3 -5 -10 -10 -16 -10 -5 0 -9 5 -9 10 0 6 7
10 16 10 8 0 12 -4 9 -10z m335 0 c0 -5 -4 -10 -10 -10 -5 0 -10 5 -10 10 0 6
5 10 10 10 6 0 10 -4 10 -10z m2460 -15 c0 -8 -3 -16 -7 -18 -5 -3 -8 5 -8 18
0 13 3 21 8 18 4 -2 7 -10 7 -18z m-3548 -9 c6 -14 20 -27 32 -29 18 -4 17 -4
-4 -6 -15 0 -31 7 -40 18 -7 11 -17 18 -22 15 -10 -6 -11 10 -1 19 12 13 23 7
35 -17z m808 14 c0 -5 -7 -7 -15 -4 -8 4 -15 8 -15 10 0 2 7 4 15 4 8 0 15 -4
15 -10z m668 -3 c6 -7 7 -18 2 -26 -4 -8 -6 -20 -3 -26 5 -16 -65 -26 -71 -10
-2 5 -5 1 -5 -10 -1 -16 -3 -17 -11 -5 -13 21 27 62 53 54 16 -5 19 -3 14 15
-6 23 5 28 21 8z m-893 -4 c-11 -3 -24 -9 -29 -14 -14 -12 -46 -11 -46 2 0 5
3 8 8 6 4 -3 16 -1 27 4 11 4 29 7 40 7 l20 0 -20 -5z m181 -19 c-4 -9 -9 -15
-11 -12 -3 3 -3 13 1 22 4 9 9 15 11 12 3 -3 3 -13 -1 -22z m84 11 c6 -8 9
-19 5 -25 -7 -11 -34 15 -35 33 0 12 17 8 30 -8z m129 -24 c-1 -13 -2 -13 -6
2 -2 9 -8 15 -12 13 -4 -3 -8 1 -8 9 0 11 4 12 14 4 7 -6 12 -19 12 -28z
m-335 7 c-3 -4 -9 -8 -15 -8 -5 0 -9 4 -9 8 0 5 7 9 15 9 8 0 12 -4 9 -9z
m-744 -20 c11 -10 28 -14 42 -11 18 4 20 3 12 -7 -7 -6 -23 -12 -35 -12 -101
1 -126 9 -103 30 12 11 14 10 14 -3 0 -9 6 -15 13 -12 6 2 11 11 11 20 -2 18
21 16 46 -5z m60 12 c0 -5 -2 -10 -4 -10 -3 0 -8 5 -11 10 -3 6 -1 10 4 10 6
0 11 -4 11 -10z m641 1 c-11 -7 -10 -11 5 -20 16 -9 16 -10 3 -11 -9 0 -19 6
-22 14 -6 16 1 26 17 26 6 0 5 -4 -3 -9z m145 -6 c15 -8 33 -11 38 -6 24 18
42 19 43 2 2 -25 -40 -41 -63 -24 -24 17 -35 17 -28 -2 4 -8 12 -15 20 -15 7
0 18 -9 24 -20 9 -16 8 -19 -6 -13 -12 4 -15 3 -10 -5 4 -8 2 -10 -7 -6 -16 6
-33 37 -41 77 -7 31 -7 32 30 12z m304 -20 c0 -5 -5 -3 -10 5 -5 8 -10 20 -10
25 0 6 5 3 10 -5 5 -8 10 -19 10 -25z m-380 15 c0 -5 -5 -10 -11 -10 -5 0 -7
5 -4 10 3 6 8 10 11 10 2 0 4 -4 4 -10z m840 0 c0 -5 -2 -10 -4 -10 -3 0 -8 5
-11 10 -3 6 -1 10 4 10 6 0 11 -4 11 -10z m1945 -21 c0 -33 -29 -36 -43 -5 -9
21 -9 24 3 19 8 -3 15 0 15 7 0 6 6 10 12 8 7 -3 13 -15 13 -29z m-3427 -1
c-3 -7 -14 -14 -26 -16 -16 -3 -20 1 -16 12 7 19 48 22 42 4z m1569 -14 c1
-18 -2 -23 -9 -16 -6 6 -8 18 -5 26 9 22 12 20 14 -10z m53 1 c0 -8 -4 -15 -8
-15 -5 0 -9 7 -9 15 0 8 4 15 9 15 4 0 8 -7 8 -15z m-600 -16 c0 -5 -4 -9 -10
-9 -5 0 -10 7 -10 16 0 8 5 12 10 9 6 -3 10 -10 10 -16z m-1192 -14 c-3 -3 -9
2 -12 12 -6 14 -5 15 5 6 7 -7 10 -15 7 -18z m1159 3 c-3 -8 -6 -5 -6 6 -1 11
2 17 5 13 3 -3 4 -12 1 -19z m-1102 3 c3 -5 1 -12 -5 -16 -5 -3 -10 1 -10 9 0
18 6 21 15 7z m1208 -16 c-3 -9 -8 -14 -10 -11 -3 3 -2 9 2 15 9 16 15 13 8
-4z m408 -29 c-7 -8 -10 -24 -6 -36 5 -16 2 -20 -14 -20 -14 0 -19 -5 -15 -15
5 -11 2 -13 -10 -9 -9 3 -13 11 -9 18 12 18 13 39 2 52 -7 8 -6 15 2 20 8 4 9
3 5 -4 -4 -7 -1 -12 9 -12 9 0 19 9 22 21 4 14 9 17 16 10 7 -7 6 -15 -2 -25z
m49 9 c0 -9 9 -15 25 -15 35 0 32 -26 -5 -33 -18 -4 -30 -13 -30 -22 0 -8 -4
-15 -9 -15 -5 0 -7 10 -3 22 3 14 2 19 -6 14 -7 -4 -12 -3 -12 3 0 5 5 13 11
17 6 3 9 15 6 25 -3 12 0 19 9 19 8 0 14 -7 14 -15z m-430 -15 c0 -5 -4 -10
-10 -10 -5 0 -10 5 -10 10 0 6 5 10 10 10 6 0 10 -4 10 -10z m550 -20 c0 -11
-4 -20 -9 -20 -6 0 -9 9 -8 20 1 11 5 20 9 20 4 0 8 -9 8 -20z m-162 -61 c12
-18 11 -20 -4 -17 -9 1 -18 11 -20 21 -3 23 8 22 24 -4z m-33 -79 c-3 -5 -12
-10 -18 -10 -7 0 -6 4 3 10 19 12 23 12 15 0z"/>
<path d="M3060 2200 c0 -5 12 -10 28 -9 24 0 25 1 7 9 -27 12 -35 12 -35 0z"/>
<path d="M3030 2190 c0 -5 5 -10 11 -10 5 0 7 5 4 10 -3 6 -8 10 -11 10 -2 0
-4 -4 -4 -10z"/>
<path d="M3080 2169 c0 -5 5 -7 10 -4 6 3 10 8 10 11 0 2 -4 4 -10 4 -5 0 -10
-5 -10 -11z"/>
<path d="M3180 2150 c0 -5 5 -10 11 -10 5 0 7 5 4 10 -3 6 -8 10 -11 10 -2 0
-4 -4 -4 -10z"/>
<path d="M3190 2119 c0 -5 5 -7 10 -4 6 3 10 8 10 11 0 2 -4 4 -10 4 -5 0 -10
-5 -10 -11z"/>
<path d="M3250 2098 c0 -4 4 -8 9 -8 6 0 12 4 15 8 3 5 -1 9 -9 9 -8 0 -15 -4
-15 -9z"/>
<path d="M2110 1792 c0 -5 7 -13 16 -16 10 -4 14 -1 12 6 -5 15 -28 23 -28 10z"/>
<path d="M1939 1674 c-6 -54 -5 -60 12 -61 15 -1 16 3 10 20 -5 12 -9 26 -9
30 -1 13 -12 22 -13 11z"/>
<path d="M1567 1625 c-4 -8 -2 -17 3 -20 6 -4 10 3 10 14 0 25 -6 27 -13 6z"/>
<path d="M2003 1569 c-1 -14 5 -19 23 -19 18 0 24 -5 24 -22 0 -17 -3 -19 -9
-9 -11 17 -68 6 -68 -14 0 -8 6 -15 13 -15 6 0 14 -9 17 -21 5 -20 5 -20 -15
-2 -12 10 -18 12 -14 6 4 -7 4 -18 0 -24 -4 -7 -11 -2 -18 13 -7 12 -20 22
-29 22 -10 -1 -17 5 -17 15 0 14 -2 14 -10 1 -13 -21 -12 -30 3 -30 8 0 24 -9
37 -20 26 -23 40 -25 40 -7 1 7 6 5 14 -5 17 -23 21 -23 23 4 1 12 10 28 19
37 12 11 14 12 9 2 -6 -11 -4 -13 8 -8 11 4 17 1 17 -7 0 -7 6 -19 14 -25 11
-9 15 -7 21 11 4 13 7 27 6 31 -1 5 3 6 8 3 5 -4 12 -2 16 4 7 12 -3 50 -13
49 -20 -3 -32 3 -32 16 0 14 -12 19 -32 16 -5 0 -8 2 -8 7 0 4 -10 8 -23 8
-16 1 -23 -4 -24 -17z"/>
<path d="M1787 1574 c-4 -4 -7 -14 -7 -23 0 -11 3 -12 11 -4 6 6 10 16 7 23
-2 6 -7 8 -11 4z"/>
<path d="M1906 1544 c-9 -24 -7 -31 4 -14 8 12 10 10 10 -8 0 -13 4 -20 10
-17 6 3 10 1 10 -4 0 -19 17 -12 23 9 10 37 -44 69 -57 34z"/>
<path d="M1809 1533 c-1 -5 -1 -12 0 -17 1 -4 -4 -16 -11 -25 -9 -12 -7 -11 9
2 12 11 19 25 16 33 -6 15 -12 18 -14 7z"/>
<path d="M1757 1517 c-3 -9 1 -18 9 -21 16 -6 18 2 5 22 -7 11 -9 11 -14 -1z"/>
<path d="M1715 1510 c3 -5 8 -10 11 -10 2 0 4 5 4 10 0 6 -5 10 -11 10 -5 0
-7 -4 -4 -10z"/>
<path d="M2130 1475 c-17 -21 -8 -28 15 -11 11 8 14 15 8 19 -6 4 -16 0 -23
-8z"/>
<path d="M1780 1462 c0 -5 10 -17 21 -28 22 -19 22 -19 10 3 -12 24 -31 39
-31 25z"/>
<path d="M1707 1423 c3 -7 9 -10 14 -7 14 8 11 21 -5 21 -8 0 -12 -6 -9 -14z"/>
<path d="M1980 1395 c0 -18 5 -25 20 -25 11 0 20 6 20 13 0 7 -9 18 -20 25
-18 11 -20 10 -20 -13z"/>
<path d="M2210 1540 c0 -5 5 -10 11 -10 5 0 7 5 4 10 -3 6 -8 10 -11 10 -2 0
-4 -4 -4 -10z"/>
<path d="M2270 1550 c0 -5 7 -7 15 -4 8 4 15 8 15 10 0 2 -7 4 -15 4 -8 0 -15
-4 -15 -10z"/>
</g>
</svg>
